<svg width="111" height="110" viewBox="0 0 111 110" fill="none" xmlns="http://www.w3.org/2000/svg">
<path d="M35.5781 100.242H32.4961L31.9102 102H30.041L33.2168 93.4688H34.8457L38.0391 102H36.1699L35.5781 100.242ZM32.9707 98.8184H35.1035L34.0312 95.625L32.9707 98.8184ZM41.0273 99.457L40.418 100.066V102H38.7246V93H40.418V97.9863L40.7461 97.5645L42.3691 95.6602H44.4023L42.1113 98.3027L44.6016 102H42.6562L41.0273 99.457ZM48.9316 101.355C48.5137 101.863 47.9355 102.117 47.1973 102.117C46.5176 102.117 45.998 101.922 45.6387 101.531C45.2832 101.141 45.1016 100.568 45.0938 99.8145V95.6602H46.7871V99.7559C46.7871 100.416 47.0879 100.746 47.6895 100.746C48.2637 100.746 48.6582 100.547 48.873 100.148V95.6602H50.5723V102H48.9785L48.9316 101.355ZM53.4082 95.6602L53.4609 96.3926C53.9141 95.8262 54.5215 95.543 55.2832 95.543C55.9551 95.543 56.4551 95.7402 56.7832 96.1348C57.1113 96.5293 57.2793 97.1191 57.2871 97.9043V102H55.5938V97.9453C55.5938 97.5859 55.5156 97.3262 55.3594 97.166C55.2031 97.002 54.9434 96.9199 54.5801 96.9199C54.1035 96.9199 53.7461 97.123 53.5078 97.5293V102H51.8145V95.6602H53.4082ZM60.6035 94.1016V95.6602H61.6875V96.9023H60.6035V100.066C60.6035 100.301 60.6484 100.469 60.7383 100.57C60.8281 100.672 61 100.723 61.2539 100.723C61.4414 100.723 61.6074 100.709 61.752 100.682V101.965C61.4199 102.066 61.0781 102.117 60.7266 102.117C59.5391 102.117 58.9336 101.518 58.9102 100.318V96.9023H57.9844V95.6602H58.9102V94.1016H60.6035ZM66.3047 102C66.2266 101.848 66.1699 101.658 66.1348 101.432C65.7246 101.889 65.1914 102.117 64.5352 102.117C63.9141 102.117 63.3984 101.938 62.9883 101.578C62.582 101.219 62.3789 100.766 62.3789 100.219C62.3789 99.5469 62.627 99.0312 63.123 98.6719C63.623 98.3125 64.3438 98.1309 65.2852 98.127H66.0645V97.7637C66.0645 97.4707 65.9883 97.2363 65.8359 97.0605C65.6875 96.8848 65.4512 96.7969 65.127 96.7969C64.8418 96.7969 64.6172 96.8652 64.4531 97.002C64.293 97.1387 64.2129 97.3262 64.2129 97.5645H62.5195C62.5195 97.1973 62.6328 96.8574 62.8594 96.5449C63.0859 96.2324 63.4062 95.9883 63.8203 95.8125C64.2344 95.6328 64.6992 95.543 65.2148 95.543C65.9961 95.543 66.6152 95.7402 67.0723 96.1348C67.5332 96.5254 67.7637 97.0762 67.7637 97.7871V100.535C67.7676 101.137 67.8516 101.592 68.0156 101.9V102H66.3047ZM64.9043 100.822C65.1543 100.822 65.3848 100.768 65.5957 100.658C65.8066 100.545 65.9629 100.395 66.0645 100.207V99.1172H65.4316C64.584 99.1172 64.1328 99.4102 64.0781 99.9961L64.0723 100.096C64.0723 100.307 64.1465 100.48 64.2949 100.617C64.4434 100.754 64.6465 100.822 64.9043 100.822ZM74.7773 98.8887C74.7773 99.9043 74.5605 100.697 74.127 101.268C73.6934 101.834 73.0879 102.117 72.3105 102.117C71.623 102.117 71.0742 101.854 70.6641 101.326L70.5879 102H69.0645V93H70.7578V96.2285C71.1484 95.7715 71.6621 95.543 72.2988 95.543C73.0723 95.543 73.6777 95.8281 74.1152 96.3984C74.5566 96.9648 74.7773 97.7637 74.7773 98.7949V98.8887ZM73.084 98.7656C73.084 98.125 72.9824 97.6582 72.7793 97.3652C72.5762 97.0684 72.2734 96.9199 71.8711 96.9199C71.332 96.9199 70.9609 97.1406 70.7578 97.582V100.084C70.9648 100.529 71.3398 100.752 71.8828 100.752C72.4297 100.752 72.7891 100.482 72.9609 99.9434C73.043 99.6855 73.084 99.293 73.084 98.7656ZM78.7441 102.117C77.8145 102.117 77.0566 101.832 76.4707 101.262C75.8887 100.691 75.5977 99.9316 75.5977 98.9824V98.8184C75.5977 98.1816 75.7207 97.6133 75.9668 97.1133C76.2129 96.6094 76.5605 96.2227 77.0098 95.9531C77.4629 95.6797 77.9785 95.543 78.5566 95.543C79.4238 95.543 80.1055 95.8164 80.6016 96.3633C81.1016 96.9102 81.3516 97.6855 81.3516 98.6895V99.3809H77.3145C77.3691 99.7949 77.5332 100.127 77.8066 100.377C78.084 100.627 78.4336 100.752 78.8555 100.752C79.5078 100.752 80.0176 100.516 80.3848 100.043L81.2168 100.975C80.9629 101.334 80.6191 101.615 80.1855 101.818C79.752 102.018 79.2715 102.117 78.7441 102.117ZM78.5508 96.9141C78.2148 96.9141 77.9414 97.0273 77.7305 97.2539C77.5234 97.4805 77.3906 97.8047 77.332 98.2266H79.6875V98.0918C79.6797 97.7168 79.5781 97.4277 79.3828 97.2246C79.1875 97.0176 78.9102 96.9141 78.5508 96.9141ZM84.1055 102H82.4062V93H84.1055V102Z" fill="#4B5563"/>
<path d="M55.7614 32.2494C61.9661 32.2423 66.9947 27.2589 67.0026 21.1095V17.1189C67.0026 10.9669 61.9694 5.979 55.7614 5.979C49.5527 5.979 44.5195 10.9669 44.5195 17.1189V21.1095C44.5274 27.2589 49.556 32.2423 55.7614 32.2494ZM46.8678 17.1189C46.8678 12.2518 50.8494 8.30607 55.7614 8.30607C60.6727 8.30607 64.6544 12.2518 64.6544 17.1189V21.1095C64.6544 25.9766 60.6727 29.9223 55.7614 29.9223C50.8494 29.9223 46.8678 25.9766 46.8678 21.1095V17.1189Z" fill="url(#paint0_linear)"/>
<path d="M93.8366 37.7326C93.8359 22.4717 84.5597 8.71314 70.3321 2.87339C56.1045 -2.967 39.7279 0.261287 28.8385 11.0525C15.7353 24.0481 13.98 44.5061 24.6807 59.508C35.3807 74.5099 55.4277 79.6958 72.162 71.7907L71.8253 79.7218C71.8253 79.738 71.824 79.7549 71.824 79.7711C71.8227 80.4256 72.204 81.021 72.8022 81.2976C73.3984 81.5703 74.1008 81.469 74.5941 81.0398L81.9277 74.7774L89.2633 81.0418C89.5667 81.3035 89.9552 81.4476 90.3575 81.4495C90.5979 81.4489 90.8351 81.397 91.0526 81.297C91.6508 81.0204 92.0322 80.425 92.0309 79.7711C92.0309 79.7542 92.0309 79.738 92.0295 79.7211L91.3337 63.3512C97.3412 58.3386 98.2591 49.5102 93.4094 43.3893C93.6931 41.5167 93.8359 39.626 93.8366 37.7326V37.7326ZM20.0353 37.7326C20.0353 18.2103 36.0621 2.32799 55.7618 2.32799C75.461 2.32799 91.4884 18.2103 91.4884 37.7326C91.4884 38.904 91.4287 40.0779 91.3134 41.2421C87.417 37.9898 82.0902 36.9886 77.2634 38.602C75.0574 36.323 72.0061 35.0387 68.8199 35.0478H65.9233C65.4286 35.0478 64.9863 35.3556 64.8193 35.8179L59.0444 51.7282L58.2018 43.9749H58.2208C58.7233 43.9749 59.1702 43.6581 59.332 43.1867L61.3448 37.3385C61.4673 36.984 61.4096 36.5925 61.1901 36.2873C60.9706 35.9821 60.6162 35.8003 60.2381 35.799L51.8477 35.7698H51.8431C51.4651 35.7698 51.1093 35.9503 50.8891 36.2555C50.6683 36.5607 50.61 36.9522 50.7312 37.3074L52.744 43.1854C52.9058 43.6574 53.3527 43.9749 53.8559 43.9749H54.1179L53.2688 51.7827L47.3806 35.812C47.2115 35.3523 46.7706 35.0472 46.2779 35.0472H42.7025C36.2265 35.055 30.9777 40.2558 30.9712 46.6741V63.2005C23.9796 56.5407 20.0301 47.3435 20.0353 37.7326V37.7326ZM57.3808 41.6479H54.6991L53.4844 38.1027L58.5956 38.1209L57.3808 41.6479ZM56.1595 46.9156L58.1893 65.5886L56.193 66.9242L54.1317 65.5795L56.1595 46.9156ZM55.7618 73.1373C47.5896 73.1451 39.6643 70.3622 33.3194 65.2581V46.6754C33.3253 41.5414 37.5231 37.3814 42.7031 37.3762H45.4563L52.6995 57.0199L51.7193 66.036C51.6721 66.4697 51.8732 66.893 52.2408 67.1333L55.5548 69.2948C55.9505 69.5532 56.4642 69.5506 56.8573 69.2876L60.0887 67.1248C60.4498 66.884 60.6457 66.4645 60.5991 66.036L59.6196 57.0205L66.7488 37.3749H68.8199C71.0626 37.3697 73.2326 38.1664 74.9302 39.6188C70.7049 41.9044 67.8902 46.1092 67.4079 50.8555C66.9264 55.6018 68.8395 60.2787 72.5211 63.3518L72.2754 69.1312C67.1753 71.7621 61.5112 73.136 55.7618 73.1373V73.1373ZM89.6178 78.2732L83.0599 72.6737C82.425 72.0764 81.4298 72.0764 80.7956 72.6737L74.237 78.2732L74.8044 64.9237C79.229 67.382 84.6258 67.382 89.0504 64.9237L89.6178 78.2732ZM81.9277 64.4394C75.1648 64.4394 69.6834 59.0074 69.6834 52.3054C69.6834 45.604 75.1648 40.1714 81.9277 40.1714C88.69 40.1714 94.172 45.604 94.172 52.3054C94.1642 59.0041 88.6867 64.4322 81.9277 64.4394Z" fill="url(#paint1_linear)"/>
<path d="M88.0251 46.648L79.9793 54.622L75.8319 50.4723C75.5377 50.1724 75.104 50.0523 74.6958 50.1574C74.2876 50.2626 73.9672 50.5769 73.8572 50.9801C73.7471 51.384 73.8644 51.8151 74.1638 52.1099L79.1407 57.0899C79.3608 57.3101 79.6602 57.4341 79.9721 57.4347H79.9754C80.2866 57.4347 80.5854 57.312 80.8055 57.0938L89.686 48.2933C90.1447 47.8388 90.1447 47.1025 89.686 46.648C89.2274 46.1935 88.4844 46.1935 88.0258 46.648H88.0251Z" fill="url(#paint2_linear)"/>
<defs>
<linearGradient id="paint0_linear" x1="55.7611" y1="2.16173" x2="55.7611" y2="79.2988" gradientUnits="userSpaceOnUse">
<stop offset="0.27027" stop-color="#A78BFA"/>
<stop offset="1" stop-color="#4F46E5"/>
</linearGradient>
<linearGradient id="paint1_linear" x1="57.1034" y1="2.16169" x2="57.1034" y2="79.2988" gradientUnits="userSpaceOnUse">
<stop offset="0.27027" stop-color="#A78BFA"/>
<stop offset="1" stop-color="#4F46E5"/>
</linearGradient>
<linearGradient id="paint2_linear" x1="81.9271" y1="2.16224" x2="81.9271" y2="79.2994" gradientUnits="userSpaceOnUse">
<stop offset="0.27027" stop-color="#A78BFA"/>
<stop offset="1" stop-color="#4F46E5"/>
</linearGradient>
</defs>
</svg>
