<svg width="122" height="18" viewBox="0 0 122 18" fill="none" xmlns="http://www.w3.org/2000/svg">
<path d="M29.996 12L28.502 9.435H27.512V12H26.693V5.727H28.718C29.192 5.727 29.591 5.808 29.915 5.97C30.245 6.132 30.491 6.351 30.653 6.627C30.815 6.903 30.896 7.218 30.896 7.572C30.896 8.004 30.77 8.385 30.518 8.715C30.272 9.045 29.9 9.264 29.402 9.372L30.977 12H29.996ZM27.512 8.778H28.718C29.162 8.778 29.495 8.67 29.717 8.454C29.939 8.232 30.05 7.938 30.05 7.572C30.05 7.2 29.939 6.912 29.717 6.708C29.501 6.504 29.168 6.402 28.718 6.402H27.512V8.778ZM36.5426 7.068V12H35.7236V11.271C35.5676 11.523 35.3486 11.721 35.0666 11.865C34.7906 12.003 34.4846 12.072 34.1486 12.072C33.7646 12.072 33.4196 11.994 33.1136 11.838C32.8076 11.676 32.5646 11.436 32.3846 11.118C32.2106 10.8 32.1236 10.413 32.1236 9.957V7.068H32.9336V9.849C32.9336 10.335 33.0566 10.71 33.3026 10.974C33.5486 11.232 33.8846 11.361 34.3106 11.361C34.7486 11.361 35.0936 11.226 35.3456 10.956C35.5976 10.686 35.7236 10.293 35.7236 9.777V7.068H36.5426ZM38.9244 7.743V10.65C38.9244 10.89 38.9754 11.061 39.0774 11.163C39.1794 11.259 39.3564 11.307 39.6084 11.307H40.2114V12H39.4734C39.0174 12 38.6754 11.895 38.4474 11.685C38.2194 11.475 38.1054 11.13 38.1054 10.65V7.743H37.4664V7.068H38.1054V5.826H38.9244V7.068H40.2114V7.743H38.9244ZM40.8977 9.516C40.8977 9.012 40.9997 8.571 41.2037 8.193C41.4077 7.809 41.6867 7.512 42.0407 7.302C42.4007 7.092 42.7997 6.987 43.2377 6.987C43.6697 6.987 44.0447 7.08 44.3627 7.266C44.6807 7.452 44.9177 7.686 45.0737 7.968V7.068H45.9017V12H45.0737V11.082C44.9117 11.37 44.6687 11.61 44.3447 11.802C44.0267 11.988 43.6547 12.081 43.2287 12.081C42.7907 12.081 42.3947 11.973 42.0407 11.757C41.6867 11.541 41.4077 11.238 41.2037 10.848C40.9997 10.458 40.8977 10.014 40.8977 9.516ZM45.0737 9.525C45.0737 9.153 44.9987 8.829 44.8487 8.553C44.6987 8.277 44.4947 8.067 44.2367 7.923C43.9847 7.773 43.7057 7.698 43.3997 7.698C43.0937 7.698 42.8147 7.77 42.5627 7.914C42.3107 8.058 42.1097 8.268 41.9597 8.544C41.8097 8.82 41.7347 9.144 41.7347 9.516C41.7347 9.894 41.8097 10.224 41.9597 10.506C42.1097 10.782 42.3107 10.995 42.5627 11.145C42.8147 11.289 43.0937 11.361 43.3997 11.361C43.7057 11.361 43.9847 11.289 44.2367 11.145C44.4947 10.995 44.6987 10.782 44.8487 10.506C44.9987 10.224 45.0737 9.897 45.0737 9.525ZM49.6888 6.978C50.2888 6.978 50.7748 7.161 51.1468 7.527C51.5188 7.887 51.7048 8.409 51.7048 9.093V12H50.8948V9.21C50.8948 8.718 50.7718 8.343 50.5258 8.085C50.2798 7.821 49.9438 7.689 49.5178 7.689C49.0858 7.689 48.7408 7.824 48.4828 8.094C48.2308 8.364 48.1048 8.757 48.1048 9.273V12H47.2858V7.068H48.1048V7.77C48.2668 7.518 48.4858 7.323 48.7618 7.185C49.0438 7.047 49.3528 6.978 49.6888 6.978ZM58.844 12L56.261 9.138V12H55.442V5.727H56.261V8.634L58.853 5.727H59.888L57.044 8.868L59.915 12H58.844ZM61.6487 5.34V12H60.8297V5.34H61.6487ZM62.7386 9.516C62.7386 9.012 62.8406 8.571 63.0446 8.193C63.2486 7.809 63.5276 7.512 63.8816 7.302C64.2416 7.092 64.6406 6.987 65.0786 6.987C65.5106 6.987 65.8856 7.08 66.2036 7.266C66.5216 7.452 66.7586 7.686 66.9146 7.968V7.068H67.7426V12H66.9146V11.082C66.7526 11.37 66.5096 11.61 66.1856 11.802C65.8676 11.988 65.4956 12.081 65.0696 12.081C64.6316 12.081 64.2356 11.973 63.8816 11.757C63.5276 11.541 63.2486 11.238 63.0446 10.848C62.8406 10.458 62.7386 10.014 62.7386 9.516ZM66.9146 9.525C66.9146 9.153 66.8396 8.829 66.6896 8.553C66.5396 8.277 66.3356 8.067 66.0776 7.923C65.8256 7.773 65.5466 7.698 65.2406 7.698C64.9346 7.698 64.6556 7.77 64.4036 7.914C64.1516 8.058 63.9506 8.268 63.8006 8.544C63.6506 8.82 63.5756 9.144 63.5756 9.516C63.5756 9.894 63.6506 10.224 63.8006 10.506C63.9506 10.782 64.1516 10.995 64.4036 11.145C64.6556 11.289 64.9346 11.361 65.2406 11.361C65.5466 11.361 65.8256 11.289 66.0776 11.145C66.3356 10.995 66.5396 10.782 66.6896 10.506C66.8396 10.224 66.9146 9.897 66.9146 9.525ZM70.8726 12.081C70.4946 12.081 70.1556 12.018 69.8556 11.892C69.5556 11.76 69.3186 11.58 69.1446 11.352C68.9706 11.118 68.8746 10.851 68.8566 10.551H69.7026C69.7266 10.797 69.8406 10.998 70.0446 11.154C70.2546 11.31 70.5276 11.388 70.8636 11.388C71.1756 11.388 71.4216 11.319 71.6016 11.181C71.7816 11.043 71.8716 10.869 71.8716 10.659C71.8716 10.443 71.7756 10.284 71.5836 10.182C71.3916 10.074 71.0946 9.969 70.6926 9.867C70.3266 9.771 70.0266 9.675 69.7926 9.579C69.5646 9.477 69.3666 9.33 69.1986 9.138C69.0366 8.94 68.9556 8.682 68.9556 8.364C68.9556 8.112 69.0306 7.881 69.1806 7.671C69.3306 7.461 69.5436 7.296 69.8196 7.176C70.0956 7.05 70.4106 6.987 70.7646 6.987C71.3106 6.987 71.7516 7.125 72.0876 7.401C72.4236 7.677 72.6036 8.055 72.6276 8.535H71.8086C71.7906 8.277 71.6856 8.07 71.4936 7.914C71.3076 7.758 71.0556 7.68 70.7376 7.68C70.4436 7.68 70.2096 7.743 70.0356 7.869C69.8616 7.995 69.7746 8.16 69.7746 8.364C69.7746 8.526 69.8256 8.661 69.9276 8.769C70.0356 8.871 70.1676 8.955 70.3236 9.021C70.4856 9.081 70.7076 9.15 70.9896 9.228C71.3436 9.324 71.6316 9.42 71.8536 9.516C72.0756 9.606 72.2646 9.744 72.4206 9.93C72.5826 10.116 72.6666 10.359 72.6726 10.659C72.6726 10.929 72.5976 11.172 72.4476 11.388C72.2976 11.604 72.0846 11.775 71.8086 11.901C71.5386 12.021 71.2266 12.081 70.8726 12.081ZM77.0472 5.727V12H76.2282V5.727H77.0472ZM83.9834 8.769C84.2114 8.805 84.4184 8.898 84.6044 9.048C84.7964 9.198 84.9464 9.384 85.0544 9.606C85.1684 9.828 85.2254 10.065 85.2254 10.317C85.2254 10.635 85.1444 10.923 84.9824 11.181C84.8204 11.433 84.5834 11.634 84.2714 11.784C83.9654 11.928 83.6024 12 83.1824 12H80.8424V5.727H83.0924C83.5184 5.727 83.8814 5.799 84.1814 5.943C84.4814 6.081 84.7064 6.27 84.8564 6.51C85.0064 6.75 85.0814 7.02 85.0814 7.32C85.0814 7.692 84.9794 8.001 84.7754 8.247C84.5774 8.487 84.3134 8.661 83.9834 8.769ZM81.6614 8.436H83.0384C83.4224 8.436 83.7194 8.346 83.9294 8.166C84.1394 7.986 84.2444 7.737 84.2444 7.419C84.2444 7.101 84.1394 6.852 83.9294 6.672C83.7194 6.492 83.4164 6.402 83.0204 6.402H81.6614V8.436ZM83.1104 11.325C83.5184 11.325 83.8364 11.229 84.0644 11.037C84.2924 10.845 84.4064 10.578 84.4064 10.236C84.4064 9.888 84.2864 9.615 84.0464 9.417C83.8064 9.213 83.4854 9.111 83.0834 9.111H81.6614V11.325H83.1104ZM86.0559 9.516C86.0559 9.012 86.1579 8.571 86.3619 8.193C86.5659 7.809 86.8449 7.512 87.1989 7.302C87.5589 7.092 87.9579 6.987 88.3959 6.987C88.8279 6.987 89.2029 7.08 89.5209 7.266C89.8389 7.452 90.0759 7.686 90.2319 7.968V7.068H91.0599V12H90.2319V11.082C90.0699 11.37 89.8269 11.61 89.5029 11.802C89.1849 11.988 88.8129 12.081 88.3869 12.081C87.9489 12.081 87.5529 11.973 87.1989 11.757C86.8449 11.541 86.5659 11.238 86.3619 10.848C86.1579 10.458 86.0559 10.014 86.0559 9.516ZM90.2319 9.525C90.2319 9.153 90.1569 8.829 90.0069 8.553C89.8569 8.277 89.6529 8.067 89.3949 7.923C89.1429 7.773 88.8639 7.698 88.5579 7.698C88.2519 7.698 87.9729 7.77 87.7209 7.914C87.4689 8.058 87.2679 8.268 87.1179 8.544C86.9679 8.82 86.8929 9.144 86.8929 9.516C86.8929 9.894 86.9679 10.224 87.1179 10.506C87.2679 10.782 87.4689 10.995 87.7209 11.145C87.9729 11.289 88.2519 11.361 88.5579 11.361C88.8639 11.361 89.1429 11.289 89.3949 11.145C89.6529 10.995 89.8569 10.782 90.0069 10.506C90.1569 10.224 90.2319 9.897 90.2319 9.525ZM94.847 6.978C95.447 6.978 95.933 7.161 96.305 7.527C96.677 7.887 96.863 8.409 96.863 9.093V12H96.053V9.21C96.053 8.718 95.93 8.343 95.684 8.085C95.438 7.821 95.102 7.689 94.676 7.689C94.244 7.689 93.899 7.824 93.641 8.094C93.389 8.364 93.263 8.757 93.263 9.273V12H92.444V7.068H93.263V7.77C93.425 7.518 93.644 7.323 93.92 7.185C94.202 7.047 94.511 6.978 94.847 6.978ZM97.8948 9.516C97.8948 9.012 97.9968 8.571 98.2008 8.193C98.4048 7.809 98.6838 7.512 99.0378 7.302C99.3978 7.092 99.7998 6.987 100.244 6.987C100.628 6.987 100.985 7.077 101.315 7.257C101.645 7.431 101.897 7.662 102.071 7.95V5.34H102.899V12H102.071V11.073C101.909 11.367 101.669 11.61 101.351 11.802C101.033 11.988 100.661 12.081 100.235 12.081C99.7968 12.081 99.3978 11.973 99.0378 11.757C98.6838 11.541 98.4048 11.238 98.2008 10.848C97.9968 10.458 97.8948 10.014 97.8948 9.516ZM102.071 9.525C102.071 9.153 101.996 8.829 101.846 8.553C101.696 8.277 101.492 8.067 101.234 7.923C100.982 7.773 100.703 7.698 100.397 7.698C100.091 7.698 99.8118 7.77 99.5598 7.914C99.3078 8.058 99.1068 8.268 98.9568 8.544C98.8068 8.82 98.7318 9.144 98.7318 9.516C98.7318 9.894 98.8068 10.224 98.9568 10.506C99.1068 10.782 99.3078 10.995 99.5598 11.145C99.8118 11.289 100.091 11.361 100.397 11.361C100.703 11.361 100.982 11.289 101.234 11.145C101.492 10.995 101.696 10.782 101.846 10.506C101.996 10.224 102.071 9.897 102.071 9.525ZM108.657 7.068V12H107.838V11.271C107.682 11.523 107.463 11.721 107.181 11.865C106.905 12.003 106.599 12.072 106.263 12.072C105.879 12.072 105.534 11.994 105.228 11.838C104.922 11.676 104.679 11.436 104.499 11.118C104.325 10.8 104.238 10.413 104.238 9.957V7.068H105.048V9.849C105.048 10.335 105.171 10.71 105.417 10.974C105.663 11.232 105.999 11.361 106.425 11.361C106.863 11.361 107.208 11.226 107.46 10.956C107.712 10.686 107.838 10.293 107.838 9.777V7.068H108.657ZM112.443 6.978C113.043 6.978 113.529 7.161 113.901 7.527C114.273 7.887 114.459 8.409 114.459 9.093V12H113.649V9.21C113.649 8.718 113.526 8.343 113.28 8.085C113.034 7.821 112.698 7.689 112.272 7.689C111.84 7.689 111.495 7.824 111.237 8.094C110.985 8.364 110.859 8.757 110.859 9.273V12H110.04V7.068H110.859V7.77C111.021 7.518 111.24 7.323 111.516 7.185C111.798 7.047 112.107 6.978 112.443 6.978ZM117.831 6.987C118.257 6.987 118.629 7.08 118.947 7.266C119.271 7.452 119.511 7.686 119.667 7.968V7.068H120.495V12.108C120.495 12.558 120.399 12.957 120.207 13.305C120.015 13.659 119.739 13.935 119.379 14.133C119.025 14.331 118.611 14.43 118.137 14.43C117.489 14.43 116.949 14.277 116.517 13.971C116.085 13.665 115.83 13.248 115.752 12.72H116.562C116.652 13.02 116.838 13.26 117.12 13.44C117.402 13.626 117.741 13.719 118.137 13.719C118.587 13.719 118.953 13.578 119.235 13.296C119.523 13.014 119.667 12.618 119.667 12.108V11.073C119.505 11.361 119.265 11.601 118.947 11.793C118.629 11.985 118.257 12.081 117.831 12.081C117.393 12.081 116.994 11.973 116.634 11.757C116.28 11.541 116.001 11.238 115.797 10.848C115.593 10.458 115.491 10.014 115.491 9.516C115.491 9.012 115.593 8.571 115.797 8.193C116.001 7.809 116.28 7.512 116.634 7.302C116.994 7.092 117.393 6.987 117.831 6.987ZM119.667 9.525C119.667 9.153 119.592 8.829 119.442 8.553C119.292 8.277 119.088 8.067 118.83 7.923C118.578 7.773 118.299 7.698 117.993 7.698C117.687 7.698 117.408 7.77 117.156 7.914C116.904 8.058 116.703 8.268 116.553 8.544C116.403 8.82 116.328 9.144 116.328 9.516C116.328 9.894 116.403 10.224 116.553 10.506C116.703 10.782 116.904 10.995 117.156 11.145C117.408 11.289 117.687 11.361 117.993 11.361C118.299 11.361 118.578 11.289 118.83 11.145C119.088 10.995 119.292 10.782 119.442 10.506C119.592 10.224 119.667 9.897 119.667 9.525Z" fill="#404040"/>
<path d="M15.75 0H2.25C1.00912 0 0 1.00912 0 2.25V15.75C0 16.9909 1.00912 18 2.25 18H15.75C16.9909 18 18 16.9909 18 15.75V2.25C18 1.00912 16.9909 0 15.75 0Z" fill="#5C5EE6"/>
<path d="M15.1875 9H12.375V6.75C12.375 6.129 12.879 6.1875 13.5 6.1875H14.625V3.375H12.375C10.5109 3.375 9 4.88588 9 6.75V9H6.75V11.8125H9V18H12.375V11.8125H14.0625L15.1875 9Z" fill="#FAFAFA"/>
</svg>
