<svg width="110" height="110" viewBox="0 0 110 110" fill="none" xmlns="http://www.w3.org/2000/svg">
<path d="M77.7707 42.9151L79.5703 44.1829C80.5068 42.8491 81.3241 41.4352 82.0118 39.9577L80.0245 39.0347C79.3894 40.3923 78.6356 41.6913 77.7707 42.9151V42.9151Z" fill="url(#paint0_linear)"/>
<path d="M75.971 40.6777H74.7821C78.1472 35.8381 79.4065 29.8413 78.2707 24.0573C77.1349 18.2733 73.7025 13.1971 68.7572 9.9897C62.3876 5.8586 54.5007 5.37324 47.1298 8.65954C42.8293 10.5674 39.3774 13.9857 37.4274 18.2678C35.4712 22.5713 34.7829 27.1566 35.4248 31.5071C35.9218 34.8056 37.1749 37.944 39.0864 40.6777H38.9611C38.6701 40.6758 38.3908 40.7908 38.1848 40.9962C37.9788 41.2022 37.8638 41.4815 37.8657 41.7731V45.7006C36.236 43.9634 34.8606 42.0036 33.7816 39.8793C33.4528 39.2534 33.1557 38.5962 32.8892 37.9391C32.6544 37.3596 32.4197 36.7654 32.232 36.1547L30.1506 36.8437C30.37 37.4849 30.6048 38.142 30.8707 38.768C31.1678 39.4722 31.4966 40.1923 31.8408 40.8806C33.2027 43.5202 34.9724 45.928 37.0832 48.0168C37.2397 48.1733 37.3962 48.3139 37.5527 48.4704L33.3904 62.2574C33.295 62.59 33.3586 62.9482 33.5622 63.2275C33.7737 63.5069 34.1044 63.6695 34.4541 63.6658L38.1634 63.6035L39.337 69.1589C39.8041 71.3583 41.7357 72.9391 43.9847 72.9611L48.8982 72.9929L49.133 77.3746C49.1672 77.9541 49.6477 78.4071 50.2284 78.4071H72.9195C73.2104 78.4089 73.4904 78.294 73.6964 78.0886C73.9018 77.8826 74.0167 77.6026 74.0149 77.3117C74.0149 77.2022 74.0149 65.7314 74.1561 63.6188C74.2967 61.475 75.0321 58.8617 75.7993 56.092C77.2388 50.896 78.7408 45.513 77.0353 41.3501C76.8305 40.9479 76.4222 40.6899 75.971 40.6777V40.6777ZM44.0629 29.3474C44.1412 32.1086 44.6155 34.8435 45.4713 37.4696C44.0868 38.3212 42.8006 39.3231 41.6373 40.4582C39.0815 37.2966 37.5918 33.4076 37.3809 29.3474H44.0629ZM72.1682 15.9834C74.7301 19.1682 76.2296 23.0756 76.4564 27.1566H69.7897C69.7157 24.3801 69.2413 21.6287 68.3813 18.9879C69.7505 18.129 71.0208 17.1216 72.1682 15.9834V15.9834ZM68.3813 37.5008C69.2432 34.8655 69.7181 32.119 69.7897 29.3474H76.4564C76.2272 33.4284 74.7283 37.3351 72.1682 40.5212C71.03 39.3677 69.7591 38.3542 68.3813 37.5008ZM58.0217 29.3474H67.5988C67.5242 31.7473 67.1293 34.1259 66.4251 36.4207C63.7972 35.1467 60.9388 34.4175 58.0217 34.2769V29.3474ZM67.5988 27.1566H58.0217V22.2271C60.9406 22.0847 63.7996 21.3499 66.4251 20.0674C67.1336 22.3671 67.5279 24.7517 67.5988 27.1566ZM58.0217 20.021V9.12901C61.4174 11.054 64.0307 14.1367 65.6586 17.9866C63.2825 19.1896 60.6814 19.8822 58.0217 20.021ZM55.8309 9.12901V20.021C53.1693 19.8859 50.5646 19.2037 48.1787 18.0178C49.8219 14.1526 52.4351 11.0692 55.8309 9.12901ZM55.8309 22.2271V27.1566H46.2538C46.3284 24.7634 46.7178 22.3903 47.4116 20.0992C50.0529 21.3499 52.9126 22.0731 55.8309 22.2271ZM55.8309 29.3474V34.2769C52.9156 34.4181 50.0585 35.1418 47.4275 36.4054C46.7245 34.1155 46.3296 31.7418 46.2538 29.3474H55.8309ZM46.2691 39.5505L46.7856 40.6777H44.7042C45.203 40.2706 45.7256 39.894 46.2691 39.5505ZM49.2742 40.6777C48.864 39.9674 48.5033 39.2301 48.194 38.4709C50.5866 37.3009 53.1876 36.6199 55.8468 36.4677V40.6777H49.2742ZM58.0217 36.4677C60.6808 36.5992 63.2825 37.2869 65.6586 38.4868C65.3364 39.235 64.9758 39.9661 64.5784 40.6777H58.0217V36.4677ZM67.5835 39.5822C68.0994 39.9264 68.6007 40.2865 69.0855 40.6777H67.0823C67.2546 40.3176 67.4111 39.9576 67.5835 39.5822V39.5822ZM70.6974 14.3555C69.7512 15.3073 68.7071 16.157 67.5835 16.8912C66.2845 13.9331 64.4537 11.3822 62.1687 9.39492C64.0821 9.92307 65.9025 10.741 67.5676 11.8205C68.6942 12.5571 69.7432 13.4062 70.6974 14.3555ZM48.0064 10.6627C49.2081 10.1236 50.4546 9.68895 51.7309 9.36374C49.3561 11.4482 47.4837 14.0432 46.2538 16.9535C45.0281 16.1643 43.8942 15.2407 42.8733 14.199C44.3502 12.7124 46.0912 11.513 48.0064 10.6627ZM39.4153 19.1756C39.9593 17.9866 40.6366 16.863 41.4338 15.8269C42.6466 17.0538 44.0018 18.1309 45.4713 19.035C44.6167 21.6604 44.1473 24.3966 44.0782 27.1566H37.4121C37.5637 24.3929 38.2434 21.6837 39.4153 19.1756ZM73.6396 55.5125C72.8412 58.3922 72.0899 61.0996 71.9182 63.4782C71.8088 65.2931 71.777 73.2588 71.777 76.2162H51.2303L50.9956 71.8504C50.9687 71.2733 50.4931 70.8185 49.9154 70.8173L43.9688 70.7703C42.7499 70.7556 41.7033 69.8973 41.4497 68.7047L40.0877 62.2733C39.9777 61.7574 39.5198 61.3912 38.9923 61.3967L35.8784 61.4438L39.9942 47.8444C40.0247 47.743 40.0406 47.6378 40.0412 47.5315V42.8685H75.2045C76.2058 46.2954 74.9068 50.9742 73.6396 55.5125Z" fill="url(#paint1_linear)"/>
<path d="M45.8155 52.8055C44.824 52.7994 44.0214 51.9974 44.0159 51.0059H41.825C41.825 53.2096 43.6118 54.9964 45.8155 54.9964C48.0192 54.9964 49.806 53.2096 49.806 51.0059H47.6151C47.6151 51.9998 46.8095 52.8055 45.8155 52.8055Z" fill="url(#paint2_linear)"/>
<path d="M81.7612 15.9833C81.2752 14.9643 80.7263 13.9764 80.118 13.0253C78.0182 9.72125 75.2522 6.89098 71.9964 4.71601C71.3857 4.30889 70.7445 3.91767 70.1026 3.55762L69.0384 5.46729C69.6332 5.79555 70.2121 6.1556 70.7757 6.53093C73.7722 8.53596 76.3195 11.1419 78.256 14.1837C78.8135 15.0615 79.3203 15.9705 79.7739 16.9064C81.2263 19.9524 82.0668 23.2546 82.2465 26.6246C82.2777 27.0941 82.2777 27.5789 82.2777 28.0483C82.2777 28.5337 82.2618 29.0032 82.2306 29.4885C82.1267 31.422 81.8064 33.3378 81.2764 35.2004L83.389 35.8105C83.9655 33.7896 84.317 31.7118 84.4374 29.6132C84.4686 29.0973 84.4845 28.5808 84.4845 28.0642C84.4845 27.5477 84.4686 27.0311 84.4374 26.5305C84.2473 22.8732 83.3383 19.2892 81.7612 15.9833V15.9833Z" fill="url(#paint3_linear)"/>
<path d="M37.0679 7.76779V8.55024C37.0661 8.84121 37.181 9.12118 37.3864 9.32658C37.5924 9.53258 37.8718 9.6475 38.1634 9.64567H43.7188V7.45481H40.7919C41.2149 7.12593 41.6526 6.82885 42.0909 6.53115L40.8702 4.71623C40.3225 5.07628 39.7906 5.4675 39.2741 5.87401V2.4624H37.0832V7.75189C37.0521 7.75189 37.0521 7.75189 37.0679 7.76779Z" fill="url(#paint4_linear)"/>
<path d="M59.2113 2.33753L59.446 0.161951C57.8243 -0.00737648 56.1909 -0.0440539 54.563 0.05253L54.7043 2.24339C56.2062 2.14925 57.7142 2.18043 59.2113 2.33753Z" fill="url(#paint5_linear)"/>
<path d="M50.2755 2.91611L49.7589 0.787598C48.1781 1.17454 46.6334 1.69842 45.1425 2.3525L46.0191 4.3557C47.3951 3.75724 48.8188 3.27555 50.2755 2.91611Z" fill="url(#paint6_linear)"/>
<path d="M66.0498 4.04272L66.8634 2.00835C66.2686 1.77362 65.6586 1.55477 65.0638 1.35121C64.7979 1.25708 64.5161 1.17883 64.2343 1.10059L63.6242 3.19792C63.8742 3.27617 64.1407 3.35441 64.3908 3.43266C64.9544 3.62032 65.5174 3.82388 66.0498 4.04272Z" fill="url(#paint7_linear)"/>
<path d="M30.9019 28.0648C30.8964 24.6832 31.556 21.3333 32.8428 18.2059C33.171 17.4235 33.5311 16.6569 33.9223 15.9056L31.9821 14.8726C31.5432 15.6844 31.1513 16.5206 30.8084 17.3764C30.1219 19.044 29.598 20.7733 29.2435 22.5406C28.6029 25.737 28.5234 29.0196 29.0087 32.243L31.1678 31.9147C30.9936 30.6389 30.9044 29.3528 30.9019 28.0648Z" fill="url(#paint8_linear)"/>
<path d="M36.6309 102H34.873V93.4688H36.6309V102ZM39.7129 95.6602L39.7656 96.3926C40.2188 95.8262 40.8262 95.543 41.5879 95.543C42.2598 95.543 42.7598 95.7402 43.0879 96.1348C43.416 96.5293 43.584 97.1191 43.5918 97.9043V102H41.8984V97.9453C41.8984 97.5859 41.8203 97.3262 41.6641 97.166C41.5078 97.002 41.248 96.9199 40.8848 96.9199C40.4082 96.9199 40.0508 97.123 39.8125 97.5293V102H38.1191V95.6602H39.7129ZM44.6172 98.7715C44.6172 98.1426 44.7383 97.582 44.9805 97.0898C45.2227 96.5977 45.5703 96.2168 46.0234 95.9473C46.4805 95.6777 47.0098 95.543 47.6113 95.543C48.4668 95.543 49.1641 95.8047 49.7031 96.3281C50.2461 96.8516 50.5488 97.5625 50.6113 98.4609L50.623 98.8945C50.623 99.8672 50.3516 100.648 49.8086 101.238C49.2656 101.824 48.5371 102.117 47.623 102.117C46.709 102.117 45.9785 101.824 45.4316 101.238C44.8887 100.652 44.6172 99.8555 44.6172 98.8477V98.7715ZM46.3105 98.8945C46.3105 99.4961 46.4238 99.957 46.6504 100.277C46.877 100.594 47.2012 100.752 47.623 100.752C48.0332 100.752 48.3535 100.596 48.584 100.283C48.8145 99.9668 48.9297 99.4629 48.9297 98.7715C48.9297 98.1816 48.8145 97.7246 48.584 97.4004C48.3535 97.0762 48.0293 96.9141 47.6113 96.9141C47.1973 96.9141 46.877 97.0762 46.6504 97.4004C46.4238 97.7207 46.3105 98.2188 46.3105 98.8945ZM53.9453 99.9316L55.123 95.6602H56.8926L54.7539 102H53.1367L50.998 95.6602H52.7676L53.9453 99.9316ZM61.2227 102C61.1445 101.848 61.0879 101.658 61.0527 101.432C60.6426 101.889 60.1094 102.117 59.4531 102.117C58.832 102.117 58.3164 101.938 57.9062 101.578C57.5 101.219 57.2969 100.766 57.2969 100.219C57.2969 99.5469 57.5449 99.0312 58.041 98.6719C58.541 98.3125 59.2617 98.1309 60.2031 98.127H60.9824V97.7637C60.9824 97.4707 60.9062 97.2363 60.7539 97.0605C60.6055 96.8848 60.3691 96.7969 60.0449 96.7969C59.7598 96.7969 59.5352 96.8652 59.3711 97.002C59.2109 97.1387 59.1309 97.3262 59.1309 97.5645H57.4375C57.4375 97.1973 57.5508 96.8574 57.7773 96.5449C58.0039 96.2324 58.3242 95.9883 58.7383 95.8125C59.1523 95.6328 59.6172 95.543 60.1328 95.543C60.9141 95.543 61.5332 95.7402 61.9902 96.1348C62.4512 96.5254 62.6816 97.0762 62.6816 97.7871V100.535C62.6855 101.137 62.7695 101.592 62.9336 101.9V102H61.2227ZM59.8223 100.822C60.0723 100.822 60.3027 100.768 60.5137 100.658C60.7246 100.545 60.8809 100.395 60.9824 100.207V99.1172H60.3496C59.502 99.1172 59.0508 99.4102 58.9961 99.9961L58.9902 100.096C58.9902 100.307 59.0645 100.48 59.2129 100.617C59.3613 100.754 59.5645 100.822 59.8223 100.822ZM66.0098 94.1016V95.6602H67.0938V96.9023H66.0098V100.066C66.0098 100.301 66.0547 100.469 66.1445 100.57C66.2344 100.672 66.4062 100.723 66.6602 100.723C66.8477 100.723 67.0137 100.709 67.1582 100.682V101.965C66.8262 102.066 66.4844 102.117 66.1328 102.117C64.9453 102.117 64.3398 101.518 64.3164 100.318V96.9023H63.3906V95.6602H64.3164V94.1016H66.0098ZM69.8242 102H68.125V95.6602H69.8242V102ZM68.0254 94.0195C68.0254 93.7656 68.1094 93.5566 68.2773 93.3926C68.4492 93.2285 68.6816 93.1465 68.9746 93.1465C69.2637 93.1465 69.4941 93.2285 69.666 93.3926C69.8379 93.5566 69.9238 93.7656 69.9238 94.0195C69.9238 94.2773 69.8359 94.4883 69.6602 94.6523C69.4883 94.8164 69.2598 94.8984 68.9746 94.8984C68.6895 94.8984 68.459 94.8164 68.2832 94.6523C68.1113 94.4883 68.0254 94.2773 68.0254 94.0195ZM71.6875 102V96.9023H70.7441V95.6602H71.6875V95.1211C71.6875 94.4102 71.8906 93.8594 72.2969 93.4688C72.707 93.0742 73.2793 92.877 74.0137 92.877C74.248 92.877 74.5352 92.916 74.875 92.9941L74.8574 94.3066C74.7168 94.2715 74.5449 94.2539 74.3418 94.2539C73.7051 94.2539 73.3867 94.5527 73.3867 95.1504V95.6602H74.6465V96.9023H73.3867V102H71.6875Z" fill="#4B5563"/>
<defs>
<linearGradient id="paint0_linear" x1="79.8912" y1="2.14096" x2="79.8912" y2="78.8424" gradientUnits="userSpaceOnUse">
<stop offset="0.324324" stop-color="#A78BFA"/>
<stop offset="1" stop-color="#4F46E5"/>
</linearGradient>
<linearGradient id="paint1_linear" x1="54.4146" y1="2.1408" x2="54.4146" y2="78.8423" gradientUnits="userSpaceOnUse">
<stop offset="0.324324" stop-color="#A78BFA"/>
<stop offset="1" stop-color="#4F46E5"/>
</linearGradient>
<linearGradient id="paint2_linear" x1="45.8155" y1="2.14067" x2="45.8155" y2="78.8421" gradientUnits="userSpaceOnUse">
<stop offset="0.324324" stop-color="#A78BFA"/>
<stop offset="1" stop-color="#4F46E5"/>
</linearGradient>
<linearGradient id="paint3_linear" x1="76.7615" y1="2.14071" x2="76.7615" y2="78.8422" gradientUnits="userSpaceOnUse">
<stop offset="0.324324" stop-color="#A78BFA"/>
<stop offset="1" stop-color="#4F46E5"/>
</linearGradient>
<linearGradient id="paint4_linear" x1="40.388" y1="2.14093" x2="40.388" y2="78.8424" gradientUnits="userSpaceOnUse">
<stop offset="0.324324" stop-color="#A78BFA"/>
<stop offset="1" stop-color="#4F46E5"/>
</linearGradient>
<linearGradient id="paint5_linear" x1="57.0046" y1="2.14076" x2="57.0046" y2="78.8422" gradientUnits="userSpaceOnUse">
<stop offset="0.324324" stop-color="#A78BFA"/>
<stop offset="1" stop-color="#4F46E5"/>
</linearGradient>
<linearGradient id="paint6_linear" x1="47.7091" y1="2.14045" x2="47.7091" y2="78.8419" gradientUnits="userSpaceOnUse">
<stop offset="0.324324" stop-color="#A78BFA"/>
<stop offset="1" stop-color="#4F46E5"/>
</linearGradient>
<linearGradient id="paint7_linear" x1="65.2438" y1="2.14045" x2="65.2438" y2="78.8419" gradientUnits="userSpaceOnUse">
<stop offset="0.324324" stop-color="#A78BFA"/>
<stop offset="1" stop-color="#4F46E5"/>
</linearGradient>
<linearGradient id="paint8_linear" x1="31.3089" y1="2.14129" x2="31.3089" y2="78.8428" gradientUnits="userSpaceOnUse">
<stop offset="0.324324" stop-color="#A78BFA"/>
<stop offset="1" stop-color="#4F46E5"/>
</linearGradient>
</defs>
</svg>
