<svg width="78" height="18" viewBox="0 0 78 18" fill="none" xmlns="http://www.w3.org/2000/svg">
<path d="M31.193 6.231C31.859 6.231 32.438 6.357 32.93 6.609C33.422 6.861 33.8 7.215 34.064 7.671C34.328 8.121 34.46 8.643 34.46 9.237C34.46 9.711 34.382 10.167 34.226 10.605C34.07 11.037 33.842 11.388 33.542 11.658C33.248 11.928 32.903 12.063 32.507 12.063C32.207 12.063 31.976 11.988 31.814 11.838C31.652 11.688 31.559 11.484 31.535 11.226C31.349 11.484 31.112 11.688 30.824 11.838C30.542 11.988 30.242 12.063 29.924 12.063C29.468 12.063 29.108 11.925 28.844 11.649C28.586 11.367 28.457 10.989 28.457 10.515C28.457 10.065 28.55 9.645 28.736 9.255C28.928 8.865 29.192 8.553 29.528 8.319C29.864 8.079 30.245 7.959 30.671 7.959C31.241 7.959 31.625 8.175 31.823 8.607L31.922 8.049H32.633L32.183 10.65C32.165 10.764 32.156 10.869 32.156 10.965C32.156 11.325 32.315 11.505 32.633 11.505C32.873 11.505 33.08 11.391 33.254 11.163C33.434 10.935 33.569 10.65 33.659 10.308C33.749 9.96 33.794 9.618 33.794 9.282C33.794 8.496 33.557 7.887 33.083 7.455C32.615 7.023 31.952 6.807 31.094 6.807C30.38 6.807 29.735 6.981 29.159 7.329C28.589 7.671 28.142 8.142 27.818 8.742C27.494 9.342 27.332 10.005 27.332 10.731C27.326 11.523 27.563 12.132 28.043 12.558C28.523 12.99 29.189 13.206 30.041 13.206C30.605 13.206 31.103 13.104 31.535 12.9L31.643 13.458C31.109 13.68 30.521 13.791 29.879 13.791C29.237 13.791 28.67 13.668 28.178 13.422C27.692 13.182 27.314 12.834 27.044 12.378C26.78 11.928 26.648 11.403 26.648 10.803C26.648 9.957 26.843 9.186 27.233 8.49C27.623 7.788 28.163 7.236 28.853 6.834C29.549 6.432 30.329 6.231 31.193 6.231ZM30.167 11.424C30.437 11.424 30.686 11.346 30.914 11.19C31.142 11.028 31.322 10.812 31.454 10.542C31.586 10.266 31.652 9.966 31.652 9.642C31.652 9.33 31.565 9.078 31.391 8.886C31.223 8.688 30.983 8.589 30.671 8.589C30.383 8.589 30.128 8.676 29.906 8.85C29.69 9.018 29.522 9.243 29.402 9.525C29.282 9.801 29.222 10.089 29.222 10.389C29.222 10.707 29.303 10.959 29.465 11.145C29.627 11.331 29.861 11.424 30.167 11.424ZM36.6263 7.869C36.7703 7.587 36.9743 7.368 37.2383 7.212C37.5083 7.056 37.8353 6.978 38.2193 6.978V7.824H38.0033C37.0853 7.824 36.6263 8.322 36.6263 9.318V12H35.8073V7.068H36.6263V7.869ZM43.5387 7.068V12H42.7197V11.271C42.5637 11.523 42.3447 11.721 42.0627 11.865C41.7867 12.003 41.4807 12.072 41.1447 12.072C40.7607 12.072 40.4157 11.994 40.1097 11.838C39.8037 11.676 39.5607 11.436 39.3807 11.118C39.2067 10.8 39.1197 10.413 39.1197 9.957V7.068H39.9297V9.849C39.9297 10.335 40.0527 10.71 40.2987 10.974C40.5447 11.232 40.8807 11.361 41.3067 11.361C41.7447 11.361 42.0897 11.226 42.3417 10.956C42.5937 10.686 42.7197 10.293 42.7197 9.777V7.068H43.5387ZM45.9205 7.743V10.65C45.9205 10.89 45.9715 11.061 46.0735 11.163C46.1755 11.259 46.3525 11.307 46.6045 11.307H47.2075V12H46.4695C46.0135 12 45.6715 11.895 45.4435 11.685C45.2155 11.475 45.1015 11.13 45.1015 10.65V7.743H44.4625V7.068H45.1015V5.826H45.9205V7.068H47.2075V7.743H45.9205ZM47.8938 9.516C47.8938 9.012 47.9958 8.571 48.1998 8.193C48.4038 7.809 48.6828 7.512 49.0368 7.302C49.3968 7.092 49.7958 6.987 50.2338 6.987C50.6658 6.987 51.0408 7.08 51.3588 7.266C51.6768 7.452 51.9138 7.686 52.0698 7.968V7.068H52.8978V12H52.0698V11.082C51.9078 11.37 51.6648 11.61 51.3408 11.802C51.0228 11.988 50.6508 12.081 50.2248 12.081C49.7868 12.081 49.3908 11.973 49.0368 11.757C48.6828 11.541 48.4038 11.238 48.1998 10.848C47.9958 10.458 47.8938 10.014 47.8938 9.516ZM52.0698 9.525C52.0698 9.153 51.9948 8.829 51.8448 8.553C51.6948 8.277 51.4908 8.067 51.2328 7.923C50.9808 7.773 50.7018 7.698 50.3958 7.698C50.0898 7.698 49.8108 7.77 49.5588 7.914C49.3068 8.058 49.1058 8.268 48.9558 8.544C48.8058 8.82 48.7308 9.144 48.7308 9.516C48.7308 9.894 48.8058 10.224 48.9558 10.506C49.1058 10.782 49.3068 10.995 49.5588 11.145C49.8108 11.289 50.0898 11.361 50.3958 11.361C50.7018 11.361 50.9808 11.289 51.2328 11.145C51.4908 10.995 51.6948 10.782 51.8448 10.506C51.9948 10.224 52.0698 9.897 52.0698 9.525ZM56.6849 6.978C57.2849 6.978 57.7709 7.161 58.1429 7.527C58.5149 7.887 58.7009 8.409 58.7009 9.093V12H57.8909V9.21C57.8909 8.718 57.7679 8.343 57.5219 8.085C57.2759 7.821 56.9399 7.689 56.5139 7.689C56.0819 7.689 55.7369 7.824 55.4789 8.094C55.2269 8.364 55.1009 8.757 55.1009 9.273V12H54.2819V7.068H55.1009V7.77C55.2629 7.518 55.4819 7.323 55.7579 7.185C56.0399 7.047 56.3489 6.978 56.6849 6.978ZM60.8577 7.986C61.0257 7.692 61.2717 7.452 61.5957 7.266C61.9197 7.08 62.2887 6.987 62.7027 6.987C63.1467 6.987 63.5457 7.092 63.8997 7.302C64.2537 7.512 64.5327 7.809 64.7367 8.193C64.9407 8.571 65.0427 9.012 65.0427 9.516C65.0427 10.014 64.9407 10.458 64.7367 10.848C64.5327 11.238 64.2507 11.541 63.8907 11.757C63.5367 11.973 63.1407 12.081 62.7027 12.081C62.2767 12.081 61.9017 11.988 61.5777 11.802C61.2597 11.616 61.0197 11.379 60.8577 11.091V12H60.0387V5.34H60.8577V7.986ZM64.2057 9.516C64.2057 9.144 64.1307 8.82 63.9807 8.544C63.8307 8.268 63.6267 8.058 63.3687 7.914C63.1167 7.77 62.8377 7.698 62.5317 7.698C62.2317 7.698 61.9527 7.773 61.6947 7.923C61.4427 8.067 61.2387 8.28 61.0827 8.562C60.9327 8.838 60.8577 9.159 60.8577 9.525C60.8577 9.897 60.9327 10.224 61.0827 10.506C61.2387 10.782 61.4427 10.995 61.6947 11.145C61.9527 11.289 62.2317 11.361 62.5317 11.361C62.8377 11.361 63.1167 11.289 63.3687 11.145C63.6267 10.995 63.8307 10.782 63.9807 10.506C64.1307 10.224 64.2057 9.894 64.2057 9.516ZM65.8147 9.516C65.8147 9.012 65.9167 8.571 66.1207 8.193C66.3247 7.809 66.6037 7.512 66.9577 7.302C67.3177 7.092 67.7197 6.987 68.1637 6.987C68.5477 6.987 68.9047 7.077 69.2347 7.257C69.5647 7.431 69.8167 7.662 69.9907 7.95V5.34H70.8187V12H69.9907V11.073C69.8287 11.367 69.5887 11.61 69.2707 11.802C68.9527 11.988 68.5807 12.081 68.1547 12.081C67.7167 12.081 67.3177 11.973 66.9577 11.757C66.6037 11.541 66.3247 11.238 66.1207 10.848C65.9167 10.458 65.8147 10.014 65.8147 9.516ZM69.9907 9.525C69.9907 9.153 69.9157 8.829 69.7657 8.553C69.6157 8.277 69.4117 8.067 69.1537 7.923C68.9017 7.773 68.6227 7.698 68.3167 7.698C68.0107 7.698 67.7317 7.77 67.4797 7.914C67.2277 8.058 67.0267 8.268 66.8767 8.544C66.7267 8.82 66.6517 9.144 66.6517 9.516C66.6517 9.894 66.7267 10.224 66.8767 10.506C67.0267 10.782 67.2277 10.995 67.4797 11.145C67.7317 11.289 68.0107 11.361 68.3167 11.361C68.6227 11.361 68.9017 11.289 69.1537 11.145C69.4117 10.995 69.6157 10.782 69.7657 10.506C69.9157 10.224 69.9907 9.897 69.9907 9.525ZM74.2368 6.987C74.6628 6.987 75.0348 7.08 75.3528 7.266C75.6768 7.452 75.9168 7.686 76.0728 7.968V7.068H76.9008V12.108C76.9008 12.558 76.8048 12.957 76.6128 13.305C76.4208 13.659 76.1448 13.935 75.7848 14.133C75.4308 14.331 75.0168 14.43 74.5428 14.43C73.8948 14.43 73.3548 14.277 72.9228 13.971C72.4908 13.665 72.2358 13.248 72.1578 12.72H72.9678C73.0578 13.02 73.2438 13.26 73.5258 13.44C73.8078 13.626 74.1468 13.719 74.5428 13.719C74.9928 13.719 75.3588 13.578 75.6408 13.296C75.9288 13.014 76.0728 12.618 76.0728 12.108V11.073C75.9108 11.361 75.6708 11.601 75.3528 11.793C75.0348 11.985 74.6628 12.081 74.2368 12.081C73.7988 12.081 73.3998 11.973 73.0398 11.757C72.6858 11.541 72.4068 11.238 72.2028 10.848C71.9988 10.458 71.8968 10.014 71.8968 9.516C71.8968 9.012 71.9988 8.571 72.2028 8.193C72.4068 7.809 72.6858 7.512 73.0398 7.302C73.3998 7.092 73.7988 6.987 74.2368 6.987ZM76.0728 9.525C76.0728 9.153 75.9978 8.829 75.8478 8.553C75.6978 8.277 75.4938 8.067 75.2358 7.923C74.9838 7.773 74.7048 7.698 74.3988 7.698C74.0928 7.698 73.8138 7.77 73.5618 7.914C73.3098 8.058 73.1088 8.268 72.9588 8.544C72.8088 8.82 72.7338 9.144 72.7338 9.516C72.7338 9.894 72.8088 10.224 72.9588 10.506C73.1088 10.782 73.3098 10.995 73.5618 11.145C73.8138 11.289 74.0928 11.361 74.3988 11.361C74.7048 11.361 74.9838 11.289 75.2358 11.145C75.4938 10.995 75.6978 10.782 75.8478 10.506C75.9978 10.224 76.0728 9.897 76.0728 9.525Z" fill="#404040"/>
<g clip-path="url(#clip0)">
<path d="M18 3.41887C17.3306 3.7125 16.6174 3.90712 15.8737 4.00162C16.6388 3.54487 17.2226 2.82712 17.4971 1.962C16.7839 2.38725 15.9964 2.68763 15.1571 2.85525C14.4799 2.13413 13.5146 1.6875 12.4616 1.6875C10.4186 1.6875 8.77387 3.34575 8.77387 5.37863C8.77387 5.67113 8.79862 5.95237 8.85938 6.22012C5.7915 6.0705 3.07687 4.60013 1.25325 2.36025C0.934875 2.91263 0.748125 3.54488 0.748125 4.2255C0.748125 5.5035 1.40625 6.63637 2.38725 7.29225C1.79437 7.281 1.21275 7.10888 0.72 6.83775C0.72 6.849 0.72 6.86363 0.72 6.87825C0.72 8.6715 1.99912 10.161 3.6765 10.5041C3.37612 10.5863 3.04875 10.6256 2.709 10.6256C2.47275 10.6256 2.23425 10.6121 2.01038 10.5626C2.4885 12.024 3.84525 13.0984 5.4585 13.1332C4.203 14.1154 2.60888 14.7071 0.883125 14.7071C0.5805 14.7071 0.29025 14.6936 0 14.6565C1.63462 15.7106 3.57188 16.3125 5.661 16.3125C12.4515 16.3125 16.164 10.6875 16.164 5.81175C16.164 5.64862 16.1584 5.49113 16.1505 5.33475C16.8829 4.815 17.4982 4.16587 18 3.41887Z" fill="#5C5EE6"/>
</g>
<defs>
<clipPath id="clip0">
<rect width="18" height="18" fill="white"/>
</clipPath>
</defs>
</svg>
